{
  "project_info": {
    "project_number": "978354341414",
    "firebase_url": "https://bus-durango.firebaseio.com",
    "project_id": "bus-durango",
    "storage_bucket": "bus-durango.appspot.com"
  },
  "client": [
    {
      "client_info": {
        "mobilesdk_app_id": "1:978354341414:android:153d985f11713433",
        "android_client_info": {
          "package_name": "com.sooreck.busdgo"
        }
      },
      "oauth_client": [
        {
          "client_id": "978354341414-fs6krkcmll3jg3ne9hq7thvku2tor1o6.apps.googleusercontent.com",
          "client_type": 3
        }
      ],
      "api_key": [
        {
          "current_key": "AIzaSyDhaymCiyogML9OH6_opEWWP96f6wdmG_I"
        }
      ],
      "services": {
        "analytics_service": {
          "status": 1
        },
        "appinvite_service": {
          "status": 2,
          "other_platform_oauth_client": [
            {
              "client_id": "978354341414-fs6krkcmll3jg3ne9hq7thvku2tor1o6.apps.googleusercontent.com",
              "client_type": 3
            }
          ]
        },
        "ads_service": {
          "status": 2
        }
      }
    }
  ],
  "configuration_version": "1"
}